-- Merging decision tree log ---
manifest
ADDED from /root/AndroidStudioProjects/androlua_pro/app/src/main/AndroidManifest.xml:2:1-139:12
	package
		ADDED from /root/AndroidStudioProjects/androlua_pro/app/src/main/AndroidManifest.xml:2:65-87
		INJECTED from /root/AndroidStudioProjects/androlua_pro/app/src/main/AndroidManifest.xml
		INJECTED from /root/AndroidStudioProjects/androlua_pro/app/src/main/AndroidManifest.xml
	android:versionName
		ADDED from /root/AndroidStudioProjects/androlua_pro/app/src/main/AndroidManifest.xml:2:37-64
		INJECTED from /root/AndroidStudioProjects/androlua_pro/app/src/main/AndroidManifest.xml
		INJECTED from /root/AndroidStudioProjects/androlua_pro/app/src/main/AndroidManifest.xml
	android:versionCode
		ADDED from /root/AndroidStudioProjects/androlua_pro/app/src/main/AndroidManifest.xml:2:11-36
		INJECTED from /root/AndroidStudioProjects/androlua_pro/app/src/main/AndroidManifest.xml
		INJECTED from /root/AndroidStudioProjects/androlua_pro/app/src/main/AndroidManifest.xml
	xmlns:android
		ADDED from /root/AndroidStudioProjects/androlua_pro/app/src/main/AndroidManifest.xml:2:88-146
uses-sdk
ADDED from /root/AndroidStudioProjects/androlua_pro/app/src/main/AndroidManifest.xml:3:2-70
	android:targetSdkVersion
		ADDED from /root/AndroidStudioProjects/androlua_pro/app/src/main/AndroidManifest.xml:3:39-68
		INJECTED from /root/AndroidStudioProjects/androlua_pro/app/src/main/AndroidManifest.xml
		INJECTED from /root/AndroidStudioProjects/androlua_pro/app/src/main/AndroidManifest.xml
	android:minSdkVersion
		ADDED from /root/AndroidStudioProjects/androlua_pro/app/src/main/AndroidManifest.xml:3:12-38
		INJECTED from /root/AndroidStudioProjects/androlua_pro/app/src/main/AndroidManifest.xml
		INJECTED from /root/AndroidStudioProjects/androlua_pro/app/src/main/AndroidManifest.xml
uses-permission#android.permission.CALL_PHONE
ADDED from /root/AndroidStudioProjects/androlua_pro/app/src/main/AndroidManifest.xml:4:2-65
	android:name
		ADDED from /root/AndroidStudioProjects/androlua_pro/app/src/main/AndroidManifest.xml:4:19-63
uses-permission#android.permission.SEND_SMS
ADDED from /root/AndroidStudioProjects/androlua_pro/app/src/main/AndroidManifest.xml:5:2-63
	android:name
		ADDED from /root/AndroidStudioProjects/androlua_pro/app/src/main/AndroidManifest.xml:5:19-61
uses-permission#android.permission.READ_PHONE_STATE
ADDED from /root/AndroidStudioProjects/androlua_pro/app/src/main/AndroidManifest.xml:7:2-71
	android:name
		ADDED from /root/AndroidStudioProjects/androlua_pro/app/src/main/AndroidManifest.xml:7:19-69
uses-permission#android.permission.WRITE_CONTACTS
ADDED from /root/AndroidStudioProjects/androlua_pro/app/src/main/AndroidManifest.xml:8:2-69
	android:name
		ADDED from /root/AndroidStudioProjects/androlua_pro/app/src/main/AndroidManifest.xml:8:19-67
uses-permission#android.permission.READ_CONTACTS
ADDED from /root/AndroidStudioProjects/androlua_pro/app/src/main/AndroidManifest.xml:9:2-68
	android:name
		ADDED from /root/AndroidStudioProjects/androlua_pro/app/src/main/AndroidManifest.xml:9:19-66
uses-permission#android.permission.WRITE_SMS
ADDED from /root/AndroidStudioProjects/androlua_pro/app/src/main/AndroidManifest.xml:10:2-64
	android:name
		ADDED from /root/AndroidStudioProjects/androlua_pro/app/src/main/AndroidManifest.xml:10:19-62
uses-permission#android.permission.READ_SMS
ADDED from /root/AndroidStudioProjects/androlua_pro/app/src/main/AndroidManifest.xml:11:2-63
	android:name
		ADDED from /root/AndroidStudioProjects/androlua_pro/app/src/main/AndroidManifest.xml:11:19-61
uses-permission#android.permission.ACCESS_WIFI_STATE
ADDED from /root/AndroidStudioProjects/androlua_pro/app/src/main/AndroidManifest.xml:12:2-72
	android:name
		ADDED from /root/AndroidStudioProjects/androlua_pro/app/src/main/AndroidManifest.xml:12:19-70
uses-permission#android.permission.CHANGE_WIFI_STATE
ADDED from /root/AndroidStudioProjects/androlua_pro/app/src/main/AndroidManifest.xml:13:2-72
	android:name
		ADDED from /root/AndroidStudioProjects/androlua_pro/app/src/main/AndroidManifest.xml:13:19-70
uses-permission#android.permission.BLUETOOTH_ADMIN
ADDED from /root/AndroidStudioProjects/androlua_pro/app/src/main/AndroidManifest.xml:14:2-70
	android:name
		ADDED from /root/AndroidStudioProjects/androlua_pro/app/src/main/AndroidManifest.xml:14:19-68
uses-permission#android.permission.WRITE_SETTINGS
ADDED from /root/AndroidStudioProjects/androlua_pro/app/src/main/AndroidManifest.xml:15:2-69
	android:name
		ADDED from /root/AndroidStudioProjects/androlua_pro/app/src/main/AndroidManifest.xml:15:19-67
uses-permission#android.permission.BATTERY_STATS
ADDED from /root/AndroidStudioProjects/androlua_pro/app/src/main/AndroidManifest.xml:16:2-68
	android:name
		ADDED from /root/AndroidStudioProjects/androlua_pro/app/src/main/AndroidManifest.xml:16:19-66
uses-permission#android.permission.CLEAR_APP_CACHE
ADDED from /root/AndroidStudioProjects/androlua_pro/app/src/main/AndroidManifest.xml:17:2-70
	android:name
		ADDED from /root/AndroidStudioProjects/androlua_pro/app/src/main/AndroidManifest.xml:17:19-68
uses-permission#android.permission.GET_PACKAGE_SIZE
ADDED from /root/AndroidStudioProjects/androlua_pro/app/src/main/AndroidManifest.xml:18:2-71
	android:name
		ADDED from /root/AndroidStudioProjects/androlua_pro/app/src/main/AndroidManifest.xml:18:19-69
uses-permission#android.permission.SYSTEM_ALERT_WINDOW
ADDED from /root/AndroidStudioProjects/androlua_pro/app/src/main/AndroidManifest.xml:20:2-74
	android:name
		ADDED from /root/AndroidStudioProjects/androlua_pro/app/src/main/AndroidManifest.xml:20:19-72
uses-permission#android.permission.KILL_BACKGROUND_PROCESSES
ADDED from /root/AndroidStudioProjects/androlua_pro/app/src/main/AndroidManifest.xml:21:2-80
	android:name
		ADDED from /root/AndroidStudioProjects/androlua_pro/app/src/main/AndroidManifest.xml:21:19-78
uses-permission#android.permission.ACCESS_NETWORK_STATE
ADDED from /root/AndroidStudioProjects/androlua_pro/app/src/main/AndroidManifest.xml:22:2-75
	android:name
		ADDED from /root/AndroidStudioProjects/androlua_pro/app/src/main/AndroidManifest.xml:22:19-73
uses-permission#android.permission.CHANGE_NETWORK_STATE
ADDED from /root/AndroidStudioProjects/androlua_pro/app/src/main/AndroidManifest.xml:23:2-75
	android:name
		ADDED from /root/AndroidStudioProjects/androlua_pro/app/src/main/AndroidManifest.xml:23:19-73
uses-permission#android.permission.BLUETOOTH
ADDED from /root/AndroidStudioProjects/androlua_pro/app/src/main/AndroidManifest.xml:24:2-64
	android:name
		ADDED from /root/AndroidStudioProjects/androlua_pro/app/src/main/AndroidManifest.xml:24:19-62
uses-permission#android.permission.INTERNET
ADDED from /root/AndroidStudioProjects/androlua_pro/app/src/main/AndroidManifest.xml:25:2-63
	android:name
		ADDED from /root/AndroidStudioProjects/androlua_pro/app/src/main/AndroidManifest.xml:25:19-61
uses-permission#android.permission.WRITE_EXTERNAL_STORAGE
ADDED from /root/AndroidStudioProjects/androlua_pro/app/src/main/AndroidManifest.xml:27:2-77
	android:name
		ADDED from /root/AndroidStudioProjects/androlua_pro/app/src/main/AndroidManifest.xml:27:19-75
uses-permission#android.permission.ACCESS_COARSE_LOCATION
ADDED from /root/AndroidStudioProjects/androlua_pro/app/src/main/AndroidManifest.xml:28:2-77
	android:name
		ADDED from /root/AndroidStudioProjects/androlua_pro/app/src/main/AndroidManifest.xml:28:19-75
uses-permission#android.permission.ACCESS_FINE_LOCATION
ADDED from /root/AndroidStudioProjects/androlua_pro/app/src/main/AndroidManifest.xml:29:2-75
	android:name
		ADDED from /root/AndroidStudioProjects/androlua_pro/app/src/main/AndroidManifest.xml:29:19-73
uses-permission#com.android.launcher.permission.INSTALL_SHORTCUT
ADDED from /root/AndroidStudioProjects/androlua_pro/app/src/main/AndroidManifest.xml:30:2-84
	android:name
		ADDED from /root/AndroidStudioProjects/androlua_pro/app/src/main/AndroidManifest.xml:30:19-82
uses-permission#android.permission.VIBRATE
ADDED from /root/AndroidStudioProjects/androlua_pro/app/src/main/AndroidManifest.xml:31:2-62
	android:name
		ADDED from /root/AndroidStudioProjects/androlua_pro/app/src/main/AndroidManifest.xml:31:19-60
uses-permission#android.permission.READ_LOGS
ADDED from /root/AndroidStudioProjects/androlua_pro/app/src/main/AndroidManifest.xml:33:2-64
	android:name
		ADDED from /root/AndroidStudioProjects/androlua_pro/app/src/main/AndroidManifest.xml:33:19-62
uses-permission#android.permission.WAKE_LOCK
ADDED from /root/AndroidStudioProjects/androlua_pro/app/src/main/AndroidManifest.xml:34:2-64
	android:name
		ADDED from /root/AndroidStudioProjects/androlua_pro/app/src/main/AndroidManifest.xml:34:19-62
uses-permission#android.permission.READ_CALL_LOG
ADDED from /root/AndroidStudioProjects/androlua_pro/app/src/main/AndroidManifest.xml:35:2-68
	android:name
		ADDED from /root/AndroidStudioProjects/androlua_pro/app/src/main/AndroidManifest.xml:35:19-66
uses-permission#android.permission.WRITE_CALL_LOG
ADDED from /root/AndroidStudioProjects/androlua_pro/app/src/main/AndroidManifest.xml:36:2-69
	android:name
		ADDED from /root/AndroidStudioProjects/androlua_pro/app/src/main/AndroidManifest.xml:36:19-67
uses-permission#android.permission.CAMERA
ADDED from /root/AndroidStudioProjects/androlua_pro/app/src/main/AndroidManifest.xml:38:2-61
	android:name
		ADDED from /root/AndroidStudioProjects/androlua_pro/app/src/main/AndroidManifest.xml:38:19-59
uses-permission#android.permission.READ_FRAME_BUFFER
ADDED from /root/AndroidStudioProjects/androlua_pro/app/src/main/AndroidManifest.xml:39:2-73
	android:name
		ADDED from /root/AndroidStudioProjects/androlua_pro/app/src/main/AndroidManifest.xml:39:19-70
uses-permission#android.permission.DOWNLOAD_WITHOUT_NOTIFICATION
ADDED from /root/AndroidStudioProjects/androlua_pro/app/src/main/AndroidManifest.xml:41:2-85
	android:name
		ADDED from /root/AndroidStudioProjects/androlua_pro/app/src/main/AndroidManifest.xml:41:19-82
uses-permission#android.permission.SET_WALLPAPER
ADDED from /root/AndroidStudioProjects/androlua_pro/app/src/main/AndroidManifest.xml:42:2-69
	android:name
		ADDED from /root/AndroidStudioProjects/androlua_pro/app/src/main/AndroidManifest.xml:42:19-66
application
ADDED from /root/AndroidStudioProjects/androlua_pro/app/src/main/AndroidManifest.xml:43:2-138:16
	android:label
		ADDED from /root/AndroidStudioProjects/androlua_pro/app/src/main/AndroidManifest.xml:44:3-28
	android:icon
		ADDED from /root/AndroidStudioProjects/androlua_pro/app/src/main/AndroidManifest.xml:43:15-44
	android:largeHeap
		ADDED from /root/AndroidStudioProjects/androlua_pro/app/src/main/AndroidManifest.xml:45:3-27
	android:persistent
		ADDED from /root/AndroidStudioProjects/androlua_pro/app/src/main/AndroidManifest.xml:46:3-28
	android:name
		ADDED from /root/AndroidStudioProjects/androlua_pro/app/src/main/AndroidManifest.xml:47:3-45
activity#com.androlua.Main
ADDED from /root/AndroidStudioProjects/androlua_pro/app/src/main/AndroidManifest.xml:48:3-79:14
	android:screenOrientation
		ADDED from /root/AndroidStudioProjects/androlua_pro/app/src/main/AndroidManifest.xml:53:4-40
	android:label
		ADDED from /root/AndroidStudioProjects/androlua_pro/app/src/main/AndroidManifest.xml:50:4-29
	android:launchMode
		ADDED from /root/AndroidStudioProjects/androlua_pro/app/src/main/AndroidManifest.xml:52:4-35
	android:configChanges
		ADDED from /root/AndroidStudioProjects/androlua_pro/app/src/main/AndroidManifest.xml:54:4-65
	android:theme
		ADDED from /root/AndroidStudioProjects/androlua_pro/app/src/main/AndroidManifest.xml:51:4-63
	android:name
		ADDED from /root/AndroidStudioProjects/androlua_pro/app/src/main/AndroidManifest.xml:49:4-36
intent-filter#android.intent.action.EDIT+android.intent.action.VIEW+android.intent.category.BROWSABLE+android.intent.category.DEFAULT
ADDED from /root/AndroidStudioProjects/androlua_pro/app/src/main/AndroidManifest.xml:60:4-69:21
action#android.intent.action.VIEW
ADDED from /root/AndroidStudioProjects/androlua_pro/app/src/main/AndroidManifest.xml:61:5-61
	android:name
		ADDED from /root/AndroidStudioProjects/androlua_pro/app/src/main/AndroidManifest.xml:61:14-57
action#android.intent.action.EDIT
ADDED from /root/AndroidStudioProjects/androlua_pro/app/src/main/AndroidManifest.xml:62:5-61
	android:name
		ADDED from /root/AndroidStudioProjects/androlua_pro/app/src/main/AndroidManifest.xml:62:14-57
category#android.intent.category.DEFAULT
ADDED from /root/AndroidStudioProjects/androlua_pro/app/src/main/AndroidManifest.xml:63:5-68
	android:name
		ADDED from /root/AndroidStudioProjects/androlua_pro/app/src/main/AndroidManifest.xml:63:16-64
category#android.intent.category.BROWSABLE
ADDED from /root/AndroidStudioProjects/androlua_pro/app/src/main/AndroidManifest.xml:64:5-70
	android:name
		ADDED from /root/AndroidStudioProjects/androlua_pro/app/src/main/AndroidManifest.xml:64:16-66
data
ADDED from /root/AndroidStudioProjects/androlua_pro/app/src/main/AndroidManifest.xml:65:5-39
	android:scheme
		ADDED from /root/AndroidStudioProjects/androlua_pro/app/src/main/AndroidManifest.xml:65:12-35
activity#com.androlua.LuaActivity
ADDED from /root/AndroidStudioProjects/androlua_pro/app/src/main/AndroidManifest.xml:80:3-123:14
	android:screenOrientation
		ADDED from /root/AndroidStudioProjects/androlua_pro/app/src/main/AndroidManifest.xml:84:4-40
	android:label
		ADDED from /root/AndroidStudioProjects/androlua_pro/app/src/main/AndroidManifest.xml:82:4-29
	android:configChanges
		ADDED from /root/AndroidStudioProjects/androlua_pro/app/src/main/AndroidManifest.xml:85:4-65
	android:theme
		ADDED from /root/AndroidStudioProjects/androlua_pro/app/src/main/AndroidManifest.xml:83:4-63
	android:name
		ADDED from /root/AndroidStudioProjects/androlua_pro/app/src/main/AndroidManifest.xml:81:4-43
intent-filter#android.intent.action.VIEW+android.intent.category.BROWSABLE+android.intent.category.DEFAULT
ADDED from /root/AndroidStudioProjects/androlua_pro/app/src/main/AndroidManifest.xml:106:4-114:21
activity#com.androlua.Welcome
ADDED from /root/AndroidStudioProjects/androlua_pro/app/src/main/AndroidManifest.xml:124:3-133:14
	android:screenOrientation
		ADDED from /root/AndroidStudioProjects/androlua_pro/app/src/main/AndroidManifest.xml:128:4-40
	android:label
		ADDED from /root/AndroidStudioProjects/androlua_pro/app/src/main/AndroidManifest.xml:126:4-30
	android:theme
		ADDED from /root/AndroidStudioProjects/androlua_pro/app/src/main/AndroidManifest.xml:127:4-50
	android:name
		ADDED from /root/AndroidStudioProjects/androlua_pro/app/src/main/AndroidManifest.xml:125:4-39
intent-filter#android.intent.action.MAIN+android.intent.category.LAUNCHER
ADDED from /root/AndroidStudioProjects/androlua_pro/app/src/main/AndroidManifest.xml:129:4-132:20
action#android.intent.action.MAIN
ADDED from /root/AndroidStudioProjects/androlua_pro/app/src/main/AndroidManifest.xml:130:5-56
	android:name
		ADDED from /root/AndroidStudioProjects/androlua_pro/app/src/main/AndroidManifest.xml:130:13-54
category#android.intent.category.LAUNCHER
ADDED from /root/AndroidStudioProjects/androlua_pro/app/src/main/AndroidManifest.xml:131:5-64
	android:name
		ADDED from /root/AndroidStudioProjects/androlua_pro/app/src/main/AndroidManifest.xml:131:15-62
service#com.androlua.LuaService
ADDED from /root/AndroidStudioProjects/androlua_pro/app/src/main/AndroidManifest.xml:134:3-137:13
	android:enabled
		ADDED from /root/AndroidStudioProjects/androlua_pro/app/src/main/AndroidManifest.xml:136:4-26
	android:name
		ADDED from /root/AndroidStudioProjects/androlua_pro/app/src/main/AndroidManifest.xml:135:4-42
